[
    {
        "id": 82,
        "ref_id": "1.1.1",
        "name": "Ensure more than one Super Admin account exists",
        "description": " Having more than one Super Admin account is needed primarily so that a single point of   failure can be avoided. Also, for larger organizations, having multiple Super Admins can   be useful for workload balancing purposes.",
        "rules": []
    },
    {
        "id": 83,
        "ref_id": "1.1.2",
        "name": "Ensure no more than 4 Super Admin accounts exist",
        "description": " Having more than one Super Admin account is needed primarily so that a single point of   failure can be avoided, but having too many should be avoided.",
        "rules": []
    },
    {
        "id": 84,
        "ref_id": "1.2.1.1",
        "name": "Ensure directory data access is externally restricted",
        "description": " Configure Google Workspace's external directory sharing to prevent unrestricted   directory data access.",
        "rules": []
    },
    {
        "id": 85,
        "ref_id": "3.1.1.1.1",
        "name": "Ensure external sharing options for primary calendars are configured",
        "description": " Control how much calendar information users in your organization can share externally.",
        "rules": []
    },
    {
        "id": 86,
        "ref_id": "3.1.1.1.2",
        "name": "Ensure internal sharing options for primary calendars are configured",
        "description": " Control how much calendar information users in your organization can share internally.",
        "rules": []
    },
    {
        "id": 87,
        "ref_id": "3.1.1.1.3",
        "name": "Ensure external invitation warnings for Google Calendar are configured",
        "description": " Configure Google Calendar to warn users when inviting guest outside your domain.",
        "rules": []
    },
    {
        "id": 88,
        "ref_id": "3.1.1.2.1",
        "name": "Ensure external sharing options for secondary calendars are configured",
        "description": " Control how much calendar information users in your organization can share externally.",
        "rules": []
    },
    {
        "id": 89,
        "ref_id": "3.1.1.2.2",
        "name": "Ensure internal sharing options for secondary calendars are configured",
        "description": " Control how much calendar information users in your organization can share internally.",
        "rules": []
    },
    {
        "id": 90,
        "ref_id": "3.1.1.3.1",
        "name": "Ensure calendar web offline is disabled",
        "description": " Limit who is allowed offline calendar access.",
        "rules": []
    },
    {
        "id": 91,
        "ref_id": "3.1.2.1.1.1",
        "name": "Ensure users are warned when they share a file outside their domain",
        "description": " Warn the user when they try and share a file and/or shared drive externally.",
        "rules": []
    },
    {
        "id": 92,
        "ref_id": "3.1.2.1.1.2",
        "name": "Ensure users cannot publish files to the web or make visible to the world as public or unlisted",
        "description": " You should control the publishing of documents to the web or making them visable to   the world as public or unlisted.",
        "rules": []
    },
    {
        "id": 93,
        "ref_id": "3.1.2.1.1.3",
        "name": "Ensure document sharing is being controlled by domain with allowlists",
        "description": " You should control sharing of documents to external domains by either blocking   domains or only allowing sharing with specific named domains.",
        "rules": []
    },
    {
        "id": 94,
        "ref_id": "3.1.2.1.1.4",
        "name": "Ensure users are warned when they share a file with users in an allowlisted domain",
        "description": " Warn the user when they try and share a file and/or shared drive with users in an   allowlisted domain.",
        "rules": []
    },
    {
        "id": 95,
        "ref_id": "3.1.2.1.1.5",
        "name": "Ensure Access Checker is configured to limit file access",
        "description": " When a user shares a file via a Google product other than Docs or Drive (e.g. by   pasting a link in Gmail), Google can check that the recipients have access. If not, when   possible, Google will ask the user to pick how they want to share the file.",
        "rules": []
    },
    {
        "id": 156,
        "ref_id": "4.2.5.1",
        "name": "Ensure Google Cloud session control is configured",
        "description": " Configure Google cloud session control to strengthen session expiration.",
        "rules": []
    },
    {
        "id": 96,
        "ref_id": "3.1.2.1.1.6",
        "name": "Ensure only users inside your organization can distribute content externally",
        "description": " You should control who is allowed to distribute organizational content to shared drives   owned by another organization.",
        "rules": []
    },
    {
        "id": 97,
        "ref_id": "3.1.2.1.2.1",
        "name": "Ensure users can create new shared drives",
        "description": " All users should have the ability to create new shared drives.",
        "rules": []
    },
    {
        "id": 98,
        "ref_id": "3.1.2.1.2.2",
        "name": "Ensure manager access members cannot modify shared drive settings",
        "description": " Only administrators should be able to modify shared drive settings.",
        "rules": []
    },
    {
        "id": 99,
        "ref_id": "3.1.2.1.2.3",
        "name": "Ensure shared drive file access is restricted to members only",
        "description": " Shared drive file access should be restricted to that shared drive's members",
        "rules": []
    },
    {
        "id": 100,
        "ref_id": "3.1.2.1.2.4",
        "name": "Ensure viewers and commenters ability to download, print, and copy files is disabled",
        "description": " limit what viewers/commenters on a shared document can do with it.",
        "rules": []
    },
    {
        "id": 101,
        "ref_id": "3.1.2.2.1",
        "name": "Ensure offline access to documents is disabled",
        "description": " Prevent documents from being locally accessible on an unconnected device.",
        "rules": []
    },
    {
        "id": 102,
        "ref_id": "3.1.2.2.2",
        "name": "Ensure desktop access to Drive is disabled",
        "description": " Prevent documents from being locally accessible on an unconnected device.",
        "rules": []
    },
    {
        "id": 103,
        "ref_id": "3.1.2.2.3",
        "name": "Ensure Add-Ons is disabled",
        "description": " Prevent users to install Google Docs add-ons from add-ons store. NOTE: This setting controls add-on access from outside your organization.",
        "rules": []
    },
    {
        "id": 104,
        "ref_id": "3.1.3.1.1",
        "name": "Ensure users cannot delegate access to their mailbox",
        "description": " Mail delegation allows the delegate to read, send, and delete messages on their behalf.   For example, a manager can delegate Gmail access to another person in their   organization, such as an administrative assistant.",
        "rules": []
    },
    {
        "id": 105,
        "ref_id": "3.1.3.1.2",
        "name": "Ensure offline access to Gmail is disabled",
        "description": " Disables the user's ability to utilize various Gmail functions (read, write, search, delete,   and label email messages) while not connected to the internet.",
        "rules": []
    },
    {
        "id": 106,
        "ref_id": "3.1.3.2.1",
        "name": "Ensure that DKIM is enabled for all mail enabled domains",
        "description": " DKIM adds an encrypted signature to the header of all outgoing messages. Email   servers that get signed messages use DKIM to decrypt the message header, and verify   the message was not changed after it was sent.",
        "rules": []
    },
    {
        "id": 107,
        "ref_id": "3.1.3.2.2",
        "name": "Ensure the SPF record is configured for all mail enabled domains",
        "description": " For all the email domains configured in Google Workspace, a corresponding Sender   Policy Framework (SPF) record should be created. NOTE: There are a number of ways SPF can be configured, this document presents a   most basic method. For more information on setting up SPF for Google Workspace   please refer to the Google documentation. •   How SPF protects against spoofing and spam   •   Define your SPF record—Basic setup",
        "rules": []
    },
    {
        "id": 108,
        "ref_id": "3.1.3.2.3",
        "name": "Ensure the DMARC record is configured for all mail enabled domains",
        "description": " For all email domains configured in Google Workspace, a corresponding Domain-Based   Message Authentication, Reporting and Conformance (DMARC) record should be   created. NOTE: There are a number of ways DMARC can be configured, this document presents   a most basic method. For more information on setting up DMARC for Google   Workspace please refer to the Google documentation. •   Help prevent spoofing and spam with DMARC   •   Tutorial: Recommended DMARC rollout",
        "rules": []
    },
    {
        "id": 109,
        "ref_id": "3.1.3.3.1",
        "name": "Enable quarantine admin notifications for Gmail",
        "description": " Quarantines can help prevent spam, minimize data loss, and protect confidential   information. They can also help moderate message attachments so users don’t send,   open, or click something they shouldn’t.",
        "rules": []
    },
    {
        "id": 110,
        "ref_id": "3.1.3.4.1.1",
        "name": "Ensure protection against encrypted attachments from untrusted senders is enabled",
        "description": " As a Google Workspace administrator, you can protect incoming mail against phishing   and harmful software (malware). You can also choose what action to take based on the   type of threat detected.",
        "rules": []
    },
    {
        "id": 111,
        "ref_id": "3.1.3.4.1.2",
        "name": "Ensure protection against attachments with scripts from untrusted senders is enabled",
        "description": " As a Google Workspace administrator, you can protect incoming mail against phishing   and harmful software (malware). You can also choose what action to take based on the   type of threat detected.",
        "rules": []
    },
    {
        "id": 112,
        "ref_id": "3.1.3.4.1.3",
        "name": "Ensure protection against anomalous attachment types in emails is enabled",
        "description": " As a Google Workspace administrator, you can protect incoming mail against phishing   and harmful software (malware). You can also choose what action to take based on the   type of threat detected.",
        "rules": []
    },
    {
        "id": 113,
        "ref_id": "3.1.3.4.2.1",
        "name": "Ensure link identification behind shortened URLs is enabled",
        "description": " Identify links behind short URLs, and display a warning when you click links to untrusted   domains.",
        "rules": []
    },
    {
        "id": 114,
        "ref_id": "3.1.3.4.2.2",
        "name": "Ensure scan linked images for malicious content is enabled",
        "description": " Scan linked images for malicious content, and display a warning when you click links to   untrusted domains.",
        "rules": []
    },
    {
        "id": 115,
        "ref_id": "3.1.3.4.2.3",
        "name": "Ensure warning prompt is shown for any click on links to untrusted domains",
        "description": " Display a warning when you click links to untrusted domains.",
        "rules": []
    },
    {
        "id": 116,
        "ref_id": "3.1.3.4.3.1",
        "name": "Ensure protection against domain spoofing based on similar domain names is enabled",
        "description": " Moves domain spoofing emails to spam folder.",
        "rules": []
    },
    {
        "id": 117,
        "ref_id": "3.1.3.4.3.2",
        "name": "Ensure protection against spoofing of employee names is enabled",
        "description": " Moves employee spoofing emails to spam folder.",
        "rules": []
    },
    {
        "id": 118,
        "ref_id": "3.1.3.4.3.3",
        "name": "Ensure protection against inbound emails spoofing your domain is enabled",
        "description": " Moves inbound emails spoofing your domain to spam folder.",
        "rules": []
    },
    {
        "id": 119,
        "ref_id": "3.1.3.4.3.4",
        "name": "Ensure protection against any unauthenticated emails is enabled",
        "description": " Displays a warning when any message is not authenticated (SPF or DKIM).",
        "rules": []
    },
    {
        "id": 120,
        "ref_id": "3.1.3.4.3.5",
        "name": "Ensure groups are protected from inbound emails spoofing your domain",
        "description": " If a group receives an email that is spoofing your domain it is sent to the spam folder.",
        "rules": []
    },
    {
        "id": 121,
        "ref_id": "3.1.3.5.1",
        "name": "Ensure POP and IMAP access is disabled for all users",
        "description": " POP and IMAP may allow users to access Gmail using legacy or unapproved email   clients that do not support modern authentication mechanisms, such as multifactor   authentication.",
        "rules": []
    },
    {
        "id": 122,
        "ref_id": "3.1.3.5.2",
        "name": "Ensure automatic forwarding options are disabled",
        "description": " You should disable automatic forwarding to prevent users from auto-forwarding mail.",
        "rules": []
    },
    {
        "id": 123,
        "ref_id": "3.1.3.5.3",
        "name": "Ensure per-user outbound gateways is disabled",
        "description": " A per-user outbound gateway is a mail server, other than the Google Workspace mail   servers, that delivers outgoing mail for a user in your domain.",
        "rules": []
    },
    {
        "id": 124,
        "ref_id": "3.1.3.5.4",
        "name": "Ensure external recipient warnings are enabled",
        "description": " Gmail adds an image or colored border to external addresses.",
        "rules": []
    },
    {
        "id": 125,
        "ref_id": "3.1.3.6.1",
        "name": "Ensure enhanced pre-delivery message scanning is enabled",
        "description": " Enables improved detection of suspicious content prior to delivery.",
        "rules": []
    },
    {
        "id": 126,
        "ref_id": "3.1.3.6.2",
        "name": "Ensure spam filters are not bypased for internal senders",
        "description": " You can configure your advanced Gmail settings to bypass, or not bypass, spam filters   for messages received from internal senders.",
        "rules": []
    },
    {
        "id": 127,
        "ref_id": "3.1.3.7.1",
        "name": "Ensure comprehensive mail storage is enabled",
        "description": " Comprehensive mail storage ensures messages sent by other core services appear in   users' sent folders and are therefore accessible to Vault.",
        "rules": []
    },
    {
        "id": 128,
        "ref_id": "3.1.4.1.1",
        "name": "Ensure external filesharing in Google Chat and Hangouts is disabled",
        "description": " Control how files are shared externally in Google Chat and Hangouts.",
        "rules": []
    },
    {
        "id": 129,
        "ref_id": "3.1.4.1.2",
        "name": "Ensure internal filesharing in Google Chat and Hangouts is disabled",
        "description": " Control how files are shared internally in Google Chat and Hangouts.",
        "rules": []
    },
    {
        "id": 130,
        "ref_id": "3.1.4.2.1",
        "name": "Ensure warn users in Google Chat and Hangouts is enabled",
        "description": " This setting lets users know when they're chatting with someone outside of your   organization. NOTE: This setting applies only to classic Hangouts.",
        "rules": []
    },
    {
        "id": 131,
        "ref_id": "3.1.4.2.2",
        "name": "Ensure Google Chat externally is restricted to allowed domains",
        "description": " Control how users chat with people outside of your organization. If you allow your users   to chat externally, you can also allow them to create and join spaces with people   outside your organization.",
        "rules": []
    },
    {
        "id": 132,
        "ref_id": "3.1.4.3.1",
        "name": "Ensure external spaces in Google Chat and Hangouts are restricted",
        "description": " Control whether users can create or join spaces within your organization that include   external people outside of your organization.",
        "rules": []
    },
    {
        "id": 133,
        "ref_id": "3.1.4.4.1",
        "name": "Ensure allow users to install Chat apps is disabled",
        "description": " Control the use of Chat apps in spaces or direct messages to connect to services in   Google Chat and look up information, schedule meetings, or complete tasks. Apps are   accounts created by Google, users in your organization, or third parties.",
        "rules": []
    },
    {
        "id": 134,
        "ref_id": "3.1.4.4.2",
        "name": "Ensure allow users to add and use incoming webhooks is disabled",
        "description": " Allow users to configure incoming webhooks and developers to call incoming webhooks   to post content. Incoming webhooks let you send asynchronous messages into Google   Chat from applications that aren't Chat apps.",
        "rules": []
    },
    {
        "id": 135,
        "ref_id": "3.1.6.1",
        "name": "Ensure accessing groups from outside this organization is set to private",
        "description": " Choose whether people outside your organization can access your groups. Group   owners can further restrict access as needed.",
        "rules": []
    },
    {
        "id": 136,
        "ref_id": "3.1.6.2",
        "name": "Ensure creating groups is restricted",
        "description": " Control who is allowed to create Groups in your organization and if they can have   external members.",
        "rules": []
    },
    {
        "id": 137,
        "ref_id": "3.1.6.3",
        "name": "Ensure default for permission to view conversations is restricted",
        "description": " By default, only allow group members to view group conversations.",
        "rules": []
    },
    {
        "id": 138,
        "ref_id": "3.1.7.1",
        "name": "Ensure service status for Google Sites is set to off",
        "description": " By default turn off Google Sites for all users.",
        "rules": []
    },
    {
        "id": 139,
        "ref_id": "3.1.8.1",
        "name": "Ensure access to external Google Groups is OFF for Everyone",
        "description": " Control whether users in your organization can access external groups from their   Google Workspace account. External groups are created outside your organization and   might include a public community group or a group for a club a user belongs to. Control access to external groups by turning on or off the Google Groups additional   service — a legacy service in your Admin console that does only one thing: It allows or   blocks users from accessing external groups from their Google Workspace account. NOTE: This service has no effect on your organization's internal groups.",
        "rules": []
    },
    {
        "id": 140,
        "ref_id": "3.1.9.1.1",
        "name": "Ensure users access to Google Workspace Marketplace apps is restricted",
        "description": " Restrict what Google Marketplace apps a user can install.",
        "rules": []
    },
    {
        "id": 141,
        "ref_id": "4.1.1.1",
        "name": "Ensure 2-Step Verification (Multi-Factor Authentication) is enforced for all users in administrative roles",
        "description": " Enforce 2-Step Verification (Multi-Factor Authentication) for all users assigned   administrative roles. These include roles such as: Help Desk Admin   Groups Admin   Super Admin   Services Admin   User Management Admin   Mobile Admin   Android Admin   Custom Admin Roles •   •   •   •   •   •   •   •",
        "rules": []
    },
    {
        "id": 142,
        "ref_id": "4.1.1.2",
        "name": "Ensure hardware security keys are used for all users in administrative roles and other high-value accounts",
        "description": " A hardware security key connects to a user's device using USB (A & C), Lightning,   NFC, or Bluetooth connection. Also, many Android phones and Apple iPhones have   built-in security keys accessible via Bluetooth and that can be assigned to a Google   Workspace account. The purpose of a physical security key is to provide an additional security layer to high   value accounts; in the event of a compromise of a user's credentials (username and   password) without the associated security key, the authentication process cannot be   successfully completed.",
        "rules": []
    },
    {
        "id": 143,
        "ref_id": "4.1.1.3",
        "name": "Ensure 2-Step Verification (Multi-Factor Authentication) is enforced for all users",
        "description": " Enforce 2-Step Verification (Multi-Factor Authentication) for all users.",
        "rules": []
    },
    {
        "id": 144,
        "ref_id": "4.1.2.1",
        "name": "Ensure Super Admin account recovery is enabled",
        "description": " This option allows Super Admin users to recover access to their accounts if their   password has been forgotten. The option is not available if either Single Sign On or Password Sync is in use.",
        "rules": []
    },
    {
        "id": 145,
        "ref_id": "4.1.2.2",
        "name": "Ensure User account recovery is enabled",
        "description": " This option allows non-Super Admin users to recover access to their accounts if their   password has been forgotten. The option is not available if either Single Sign On or Password Sync is in use.",
        "rules": []
    },
    {
        "id": 146,
        "ref_id": "4.1.3.1",
        "name": "Ensure Advanced Protection Program is configured",
        "description": " Enable Google's Advanced Protection Platform for all users and prevent the use of   security codes where applicable.",
        "rules": []
    },
    {
        "id": 147,
        "ref_id": "4.1.4.1",
        "name": "Ensure login challenges are enforced",
        "description": " Configure Google Workspace to verify a user's identity post-sso.",
        "rules": []
    },
    {
        "id": 148,
        "ref_id": "4.1.5.1",
        "name": "Ensure password policy is configured for enhanced security",
        "description": " Configure Google Workspace Password Policy with a more secure length and is   enforced upon next sign-in to protect against the use of common password attacks.",
        "rules": []
    },
    {
        "id": 149,
        "ref_id": "4.2.1.1",
        "name": "Ensure application access to Google services is restricted",
        "description": " Prevent unrestricted application access to Google services.",
        "rules": []
    },
    {
        "id": 150,
        "ref_id": "4.2.1.2",
        "name": "Review third-party applications periodically",
        "description": " Weekly review connected applications for potential malicious or unintended access or   connections.",
        "rules": []
    },
    {
        "id": 151,
        "ref_id": "4.2.1.3",
        "name": "Ensure internal apps can access Google Workspace APIs",
        "description": " Enable access to Google Workspace APIs for customer-owned / developed   applications.",
        "rules": []
    },
    {
        "id": 152,
        "ref_id": "4.2.1.4",
        "name": "Review domain-wide delegation for applications periodically",
        "description": " Weekly review domain-wide delegations for applications for potentially malicious or   unintended access or connections.",
        "rules": []
    },
    {
        "id": 153,
        "ref_id": "4.2.2.1",
        "name": "Ensure blocking access from unapproved geographic locations",
        "description": " Restrict access to selected Google applications by geographic location.",
        "rules": []
    },
    {
        "id": 154,
        "ref_id": "4.2.3.1",
        "name": "Ensure DLP policies for Google Drive are configured",
        "description": " Enabling Data Loss Prevention (DLP) policies for Google Drive allows organizations to   control the content that users can share in Google Drive files outside the organization.",
        "rules": []
    },
    {
        "id": 155,
        "ref_id": "4.2.4.1",
        "name": "Ensure Google session control is configured",
        "description": " Configure Google Workspace's session control to strengthen session expiration.",
        "rules": []
    },
    {
        "id": 157,
        "ref_id": "4.2.6.1",
        "name": "Ensure less secure app access is disabled",
        "description": " Configure Google Workspace security settings to prevent access to less secure apps.",
        "rules": []
    },
    {
        "id": 158,
        "ref_id": "4.3.1",
        "name": "Ensure the Dashboard is reviewed regularly for anomalies",
        "description": " As an administrator, you can use the security dashboard to see an overview of different   security reports. By default, each security report panel displays data from the last 7   days. You can customize the dashboard to view data from Today, Yesterday, This   week, Last week, This month, Last month, or Days ago (up to 180 days). Charts/reports available (Minimum, but could be many more depending on account   type): •   •   •   •   •   •   •   •   •   •   • DLP incidents   Top policy incidents   Failed device password attempts   Compromised device events   Suspicious device activities   OAuth scope grants by product (beta customers only)   OAuth grant activity   OAuth grants to new apps   User login attempts – Challenge method   User login attempts – Failed   User login attempts – Suspicious Details on what each of these charts/reports mean can be found here. This report   should be reviewed weekly. NOTE: The availability of each individual report on the security dashboard depends on   your Google Workspace edition. See Google documentation for more details. NOTE: In larger organizations reviewing this entire report weekly may not be possible.   At a minimum, all Administrator and Super Administrator users should be reviewed,   since they are a higher risk. These can be filtered from the overall user list.",
        "rules": []
    },
    {
        "id": 159,
        "ref_id": "4.3.2",
        "name": "Ensure the Security health is reviewed regularly for anomalies",
        "description": " As an administrator, the security health page enables you to monitor the configuration of   your Admin console settings from one location. For example, you can check the status   of settings like automatic email forwarding, device encryption, Drive sharing settings,   and much more. Settings reported (Minimum, but could be many more depending on account type): •   •   •   •   •   •   •   •   •   •   •   • Blocking of compromised mobile devices   Mobile management   Mobile password requirements   Device encryption   Mobile inactivity reports   Auto account wipe   Application verification   Installation of mobile applications from unknown sources   External media storage   Two-step verification for users   Two-step verification for admins   Security key enforcement for admins Details on what each of these report entries mean can be found here. This report   should be reviewed weekly. NOTE: The availability of each individual report on the security dashboard depends on   your Google Workspace edition. See Google documentation for more details.",
        "rules": []
    },
    {
        "id": 160,
        "ref_id": "5.1.1.1",
        "name": "Ensure the App Usage Report is reviewed regularly for anomalies",
        "description": " As an administrator, you can use Apps usage reports to get an in-depth understanding   of how your users use Google Workspace apps. Fields Available: •   •   •   •   •   •   •   •   •   •   •   •   •   •   •   •   •   •   •   •   •   •   •   •   •   •   •   •   •   •   •   •   • User   Gmail storage used (MB)   Drive storage used (MB)   Photos storage used (MB)   Total storage used (MB)   Storage used (%)   Classroom - last used time   Classes created   Posts created   Total emails   Emails sent   Emails received   Gmail (IMAP) - last used time   Gmail (POP) - last used time   Gmail (Web) - last used time   Files edited   Files viewed   Drive - last active time   Files added   Other types added   Google Docs added   Google Sheets added   Google Slides added   Google Forms added   Google Drawings added   Posts   +1s   +1s received   Comments   Comments received   Reshares   Reshares received   Search queries Page 211 •   •   • Search queries from web   Search queries from Android   Search queries from iOS Details on what each of these fields mean can be found here. This report should be   reviewed weekly. NOTE: In larger organizations reviewing this entire report weekly may not be possible.   At a minimum, all Administrator and Super Administrator users should be reviewed,   since they are a higher risk. These can be filtered from the overall user list.",
        "rules": []
    },
    {
        "id": 161,
        "ref_id": "5.1.1.2",
        "name": "Ensure the Security Report is reviewed regularly for anomalies",
        "description": " As your organization's administrator, you can monitor your users' exposure to data   compromise by reviewing the security report. Fields Available: •   User   External apps   •   •   2-Step verification enrollment   •   2-Step verification enforcement   •   Password length compliance   •   Password strength   User account status   •   Admin status   •   •   Security keys enrolled   •   Less secure apps access   •   Gmail (IMAP) - last used time   Gmail (POP) - last used time   •   Gmail (Web) - last used time   •   •   External shares   •   Internal shares   •   Public   Anyone with link   •   Outside domain   •   •   Anyone in domain shares   •   Anyone in domain with link shares   • Within domain shares   Private shares   • Details on what each of these fields mean can be found here. This report should be   reviewed weekly. NOTE: In larger organizations reviewing this entire report weekly may not be possible.   At a minimum, all Administrator and Super Administrator users should be reviewed,   since they are a higher risk. These can be filtered from the overall user list. Page 214",
        "rules": []
    },
    {
        "id": 162,
        "ref_id": "6.1",
        "name": "Ensure User's password changed is configured",
        "description": " Configuring and enabling the setting that an alert will be generated when a user's   password has changed.",
        "rules": []
    },
    {
        "id": 163,
        "ref_id": "6.2",
        "name": "Ensure Government-backed attacks is configured",
        "description": " Configuring and enabling the setting that an alert will be generated when Google   believes your users are being targeted by a government-backed attack.",
        "rules": []
    },
    {
        "id": 164,
        "ref_id": "6.3",
        "name": "Ensure User suspended due to suspicious activity is configured",
        "description": " Configuring and enabling the setting that an alert will be generated when Google   suspended a user's account due to a potential compromise detected.",
        "rules": []
    },
    {
        "id": 165,
        "ref_id": "6.4",
        "name": "Ensure User granted Admin privilege is configured",
        "description": " Configuring and enabling the setting that an alert will be generated when a user has   been granted an admin privilege.",
        "rules": []
    },
    {
        "id": 166,
        "ref_id": "6.5",
        "name": "Ensure Suspicious programmatic login is configured",
        "description": " Configuring and enabling the setting that an alert will be generated when Google   detects suspicious login attempts from applications or computer programs.",
        "rules": []
    },
    {
        "id": 167,
        "ref_id": "6.6",
        "name": "Ensure Suspicious login is configured",
        "description": " Configuring and enabling the setting that an alert will be generated when Google   detects a sign-in attempt that doesn't match a user's normal behavior, such as a sign-in   from an unusual location.",
        "rules": []
    },
    {
        "id": 168,
        "ref_id": "6.7",
        "name": "Ensure Leaked password is configured",
        "description": " Configuring and enabling the setting that an alert will be generated when Google   detects compromised credentials requiring a reset of a user's password.",
        "rules": []
    },
    {
        "id": 169,
        "ref_id": "6.8",
        "name": "Ensure Gmail potential employee spoofing is configured",
        "description": " Configuring and enabling the setting that an alert will be generated when Google   detects incoming messages are received where a sender’s name is in your Google   Workspace directory, but the mail is not from your company’s domains or domain   aliases.",
        "rules": []
    }
]