[
  {
    "rule_id": "GooglePublicSensitiveFiles",
    "name": "Public and anyone with the link sensitive files",
    "description": "This rule identifies potentially sensitive content based on the file's title. By default, users are allowed to share files with permissions that allow anyone with the link to access the content. Users may accidentally share sensitive files with no permission restrictions, leaving the file open to anyone with the link. To reduce publicly available files, users should be required to deliberately specify an intended audience when sharing files. This will help prevent data leakage scenarios should a shared link reach an unintended audience.\n\nPotentially sensitive files are detected based on pattern matching on their filenames.\n"
  },
  {
    "rule_id": "GoogleActivitySMSUsers",
    "name": "User logins with SMS and phone calls for MFA",
    "description": "This control identifies accounts that are using SMS and phone calls as a method for multi-factor authentication within the last 30 days. There are common TTPs (tools, tactics, and procedures) that allow adversaries to compromise an account that uses SMS or phone calls for multi-factor authentication. There are more robust and secure methods available such as authenticator apps and hardware keys. These weak methods for MFA should be deprecated and a strict policy enforced that requires strong modern methods.\n"
  },
  {
    "rule_id": "GoogleInactivePrivilegedAccounts",
    "name": "Inactive privileged accounts",
    "description": "Ensure that admin accounts that have been inactive for significant time (usually 30 days) are removed. Removing unused privileged accounts will help reduce the attack surface. It's common for organizations to keep a 'break glass' admin account set aside for emergencies. This account may appear inactive and should be omitted from removal.\n"
  },
  {
    "rule_id": "GoogleMailboxForwarding",
    "name": "Mailbox forwarding",
    "description": "Do not allow mail to be automatically forwarded to untrusted domains or users, this is a standard data exfiltration\nmethod used by attackers. While mail forwarding can have valid business uses cases, it can often result in unintended\ndata leakage scenarios such as employees forwarding mail to their personal accounts. Carefully review the forwarding\nrules in your organization and establish a policy that enforces restrictions on automatic forwarding.\n\n\n### Email forwarding setting\n\nEmail forwarding can be affected by your organization unit's settings. Please filter by the **Detected forwarding setting**\ncolumn. Do note these values currently can only be parsed through activity data. If no changes to the setting has been\nmade recently then the value will be unknown.\n\nValid values are:\n  - true: Email forwarding is enabled\n  - false: Email forwarding is disabled\n  - inherit_from_parent: Setting inherited from parent organizational unit.\n  - unknown: No data detected\n"
  },
  {
    "rule_id": "GooglePublicFiles",
    "name": "Public and anyone with the link files",
    "description": "This rule identifies publicly available files and files that are accessible by anyone by a link. By default, users are allowed to share files with permissions that allow anyone with the link to access the content. To reduce publicly available files, users should be required to deliberately specify an intended audience when sharing files. This will help prevent data leakage scenarios should a shared link reach an unintended audience.\n"
  },
  {
    "rule_id": "GoogleGmailDelegates",
    "name": "Mailbox delegates",
    "description": "Mailbox delegation allows the delegate to read, send, and delete messages on behalf of the mailbox owner. For example, a manager can delegate Gmail access to an assistant. Default Gmail settings allow users to grant delegate access to other users in the domain. This type of access could be leveraged by an adversary to pivot to other accounts. It also risks internal employees abusing access to mailboxes they do not own.\n"
  },
  {
    "rule_id": "GoogleInactiveAccounts",
    "name": "Inactive non-privileged accounts",
    "description": "Ensure that accounts that have been inactive for a significant time (usually 30 days) are removed. Removing unused dormant accounts will help reduce licensing usage and reduce attack surface.\n"
  }
]
